<svg width="12" height="12" viewBox="0 0 12 12" fill="none" xmlns="http://www.w3.org/2000/svg">
<g clip-path="url(#clip0)">
<path d="M6.74996 5.99998C6.75017 6.16352 6.71548 6.32523 6.64823 6.4743C6.58098 6.62338 6.4827 6.7564 6.35996 6.86448L0.783964 11.77C0.599189 11.925 0.361087 12.0016 0.12057 11.9834C-0.119947 11.9652 -0.343789 11.8536 -0.503091 11.6725C-0.662393 11.4913 -0.744512 11.2551 -0.731887 11.0142C-0.719263 10.7733 -0.612898 10.547 -0.435536 10.3835L4.44046 6.09398C4.45385 6.08225 4.46457 6.06779 4.47192 6.05158C4.47927 6.03537 4.48307 6.01778 4.48307 5.99998C4.48307 5.98218 4.47927 5.96459 4.47192 5.94838C4.46457 5.93216 4.45385 5.91771 4.44046 5.90598L-0.435536 1.61648C-0.612898 1.45301 -0.719263 1.22663 -0.731887 0.985752C-0.744512 0.744876 -0.662393 0.50862 -0.503091 0.327503C-0.343789 0.146386 -0.119947 0.0347826 0.12057 0.0165578C0.361087 -0.00166706 0.599189 0.0749328 0.783964 0.229978L6.35796 5.13398C6.48101 5.24225 6.5796 5.37547 6.64719 5.52478C6.71477 5.67409 6.74981 5.83608 6.74996 5.99998Z" fill="white"/>
</g>
<defs>
<clipPath id="clip0">
<rect width="12" height="12" fill="white"/>
</clipPath>
</defs>
</svg>
