<svg width="13" height="8" viewBox="0 0 13 8" fill="none" xmlns="http://www.w3.org/2000/svg">
<path d="M6.87637 7.48312C6.712 7.48332 6.54947 7.44864 6.39964 7.38139C6.24981 7.31413 6.11611 7.21586 6.00749 7.09312L1.07708 1.51712C0.921251 1.33234 0.844263 1.09424 0.86258 0.853724C0.880898 0.613207 0.993068 0.389365 1.17511 0.230063C1.35714 0.0707609 1.5946 -0.0113579 1.83669 0.00126637C2.07879 0.0138906 2.30632 0.120256 2.47062 0.297618L6.7819 5.17362C6.79369 5.187 6.80822 5.19773 6.82451 5.20507C6.8408 5.21242 6.85848 5.21622 6.87637 5.21622C6.89426 5.21622 6.91194 5.21242 6.92824 5.20507C6.94453 5.19773 6.95906 5.187 6.97085 5.17362L11.2821 0.297618C11.4464 0.120256 11.674 0.013891 11.9161 0.0012668C12.1582 -0.0113574 12.3956 0.0707614 12.5776 0.230064C12.7597 0.389366 12.8718 0.613207 12.8902 0.853724C12.9085 1.09424 12.8315 1.33234 12.6757 1.51712L7.74677 7.09112C7.63795 7.21416 7.50405 7.31275 7.35398 7.38034C7.20391 7.44793 7.0411 7.48296 6.87637 7.48312Z" fill="#FA585D"/>
</svg>
