<svg width="8" height="14" viewBox="0 0 8 14" fill="none" xmlns="http://www.w3.org/2000/svg">
<path d="M5.03125 13.6562H2.5625V7.59375H0.5V5.21875H2.5625V3.46875C2.5625 2.46875 2.84375 1.69792 3.40625 1.15625C3.96875 0.614583 4.71875 0.34375 5.65625 0.34375C6.40625 0.34375 7.02083 0.375 7.5 0.4375V2.53125L6.21875 2.5625C5.76042 2.5625 5.44792 2.65625 5.28125 2.84375C5.11458 3.03125 5.03125 3.3125 5.03125 3.6875V5.21875H7.40625L7.09375 7.59375H5.03125V13.6562Z" fill="#2B2B2B"/>
</svg>
