<svg width="32" height="32" viewBox="0 0 32 32" fill="none" xmlns="http://www.w3.org/2000/svg">
<path d="M8 10C5.24267 10 3 7.75733 3 5C3 2.24267 5.24267 0 8 0C10.7573 0 13 2.24267 13 5C13 7.75733 10.7573 10 8 10ZM8 2C6.34533 2 5 3.34533 5 5C5 6.65467 6.34533 8 8 8C9.65467 8 11 6.65467 11 5C11 3.34533 9.65467 2 8 2Z" fill="#959595"/>
<path d="M5 32C4.484 32 4.056 31.6133 4.00533 31.1L3.09467 22H1C0.448 22 0 21.552 0 21V18C0 13.5893 3.58933 10 8 10C12.4107 10 16 13.5893 16 18V21C16 21.552 15.552 22 15 22H12.9053L11.996 31.1C11.944 31.6133 11.516 32 11 32H5ZM10.0947 30L11.004 20.9C11.056 20.3867 11.484 20 12 20H14V18C14 14.692 11.308 12 8 12C4.692 12 2 14.692 2 18V20H4C4.516 20 4.944 20.3867 4.99467 20.9L5.90533 30H10.0947Z" fill="#959595"/>
<path d="M24 10C21.2427 10 19 7.75733 19 5C19 2.24267 21.2427 0 24 0C26.7573 0 29 2.24267 29 5C29 7.75733 26.7573 10 24 10ZM24 2C22.3453 2 21 3.34533 21 5C21 6.65467 22.3453 8 24 8C25.6547 8 27 6.65467 27 5C27 3.34533 25.6547 2 24 2Z" fill="#959595"/>
<path d="M21 32C20.484 32 20.056 31.612 20.0053 31.0987L19.0947 22H18C17.448 22 17 21.552 17 21C17 20.448 17.448 20 18 20H20C20.516 20 20.944 20.388 20.9947 20.9014L21.9053 30H26.096L27.0067 20.9C27.056 20.388 27.484 20 28 20H30V18C29.9987 16.3987 29.3733 14.892 28.2387 13.76C27.1067 12.628 25.6013 12.0054 24 12.0054C21.9027 12.0067 19.9347 13.1214 18.8573 14.9147C18.6773 15.2134 18.348 15.4 18 15.4C17.8187 15.4 17.6413 15.3507 17.4853 15.2574C17.0133 14.9734 16.8587 14.3574 17.1427 13.8854C18.5787 11.4947 21.204 10.008 23.9933 10.0054C26.1333 10.0054 28.1413 10.836 29.652 12.344C31.164 13.8534 31.9987 15.8627 32 17.9987V20.9987C32 21.5507 31.552 21.9987 31 21.9987H28.9053L27.9947 31.0987C27.944 31.612 27.516 32 27 32H21Z" fill="#959595"/>
</svg>
