<svg width="14" height="12" viewBox="0 0 14 12" fill="none" xmlns="http://www.w3.org/2000/svg">
<path d="M12.2969 3.28125C12.2969 3.40625 12.2969 3.52083 12.2969 3.625C12.2969 4.5625 12.1198 5.48958 11.7656 6.40625C11.4323 7.30208 10.9427 8.125 10.2969 8.875C9.67188 9.625 8.84896 10.2396 7.82812 10.7188C6.82812 11.1771 5.72396 11.4062 4.51562 11.4062C2.99479 11.4062 1.59896 11 0.328125 10.1875C0.536458 10.2083 0.755208 10.2188 0.984375 10.2188C2.25521 10.2188 3.39062 9.83333 4.39062 9.0625C3.78646 9.04167 3.24479 8.85417 2.76562 8.5C2.30729 8.14583 1.99479 7.69792 1.82812 7.15625C1.99479 7.19792 2.16146 7.21875 2.32812 7.21875C2.57812 7.21875 2.81771 7.17708 3.04688 7.09375C2.42188 6.96875 1.90104 6.65625 1.48438 6.15625C1.06771 5.65625 0.859375 5.08333 0.859375 4.4375C0.859375 4.41667 0.859375 4.40625 0.859375 4.40625C1.25521 4.61458 1.67188 4.72917 2.10938 4.75C1.29688 4.1875 0.890625 3.42708 0.890625 2.46875C0.890625 1.96875 1.01562 1.51042 1.26562 1.09375C1.95312 1.92708 2.77604 2.59375 3.73438 3.09375C4.71354 3.59375 5.76562 3.875 6.89062 3.9375C6.84896 3.72917 6.82812 3.52083 6.82812 3.3125C6.82812 2.5625 7.08854 1.92708 7.60938 1.40625C8.15104 0.864583 8.79688 0.59375 9.54688 0.59375C10.3385 0.59375 11.0052 0.875 11.5469 1.4375C12.1719 1.3125 12.7552 1.09375 13.2969 0.78125C13.0885 1.42708 12.6823 1.92708 12.0781 2.28125C12.6406 2.21875 13.1719 2.08333 13.6719 1.875C13.2969 2.41667 12.8385 2.88542 12.2969 3.28125Z" fill="#FA585D"/>
</svg>
