<svg width="24" height="24" viewBox="0 0 24 24" fill="none" xmlns="http://www.w3.org/2000/svg">
<path d="M7.5 12.75C4.812 12.75 2.625 10.563 2.625 7.875C2.625 5.187 4.812 3 7.5 3C10.188 3 12.375 5.187 12.375 7.875C12.375 10.563 10.188 12.75 7.5 12.75ZM7.5 4.5C5.639 4.5 4.125 6.014 4.125 7.875C4.125 9.736 5.639 11.25 7.5 11.25C9.361 11.25 10.875 9.736 10.875 7.875C10.875 6.014 9.361 4.5 7.5 4.5Z" fill="white"/>
<path d="M14.25 21C13.836 21 13.5 20.664 13.5 20.25C13.5 16.942 10.808 14.25 7.5 14.25C4.192 14.25 1.5 16.942 1.5 20.25C1.5 20.664 1.164 21 0.75 21C0.336 21 0 20.664 0 20.25C0 16.115 3.365 12.75 7.5 12.75C11.635 12.75 15 16.115 15 20.25C15 20.664 14.664 21 14.25 21Z" fill="white"/>
<path d="M17.727 14.25C15.453 14.25 13.6021 12.399 13.6021 10.125C13.6021 7.85 15.453 6 17.727 6C20.001 6 21.852 7.85 21.852 10.125C21.852 12.399 20.001 14.25 17.727 14.25ZM17.727 7.5C16.279 7.5 15.1021 8.678 15.1021 10.125C15.1021 11.572 16.279 12.75 17.727 12.75C19.175 12.75 20.352 11.572 20.352 10.125C20.352 8.678 19.175 7.5 17.727 7.5Z" fill="white"/>
<path d="M23.2499 21C22.8359 21 22.4999 20.664 22.4999 20.25C22.4999 19.686 22.4009 19.131 22.2049 18.602C21.7639 17.405 20.8829 16.451 19.7239 15.917C19.0889 15.624 18.4169 15.475 17.7269 15.475C17.1649 15.475 16.6079 15.575 16.0709 15.772C15.9879 15.803 15.9009 15.818 15.8119 15.818C15.4989 15.818 15.2169 15.621 15.1079 15.328C15.0389 15.14 15.0459 14.936 15.1299 14.755C15.2139 14.573 15.3639 14.434 15.5519 14.365C16.2499 14.108 16.9779 13.977 17.7169 13.977C20.3379 13.977 22.7059 15.627 23.6109 18.083C23.8689 18.779 23.9999 19.508 23.9999 20.25C23.9999 20.663 23.6639 21 23.2499 21Z" fill="white"/>
</svg>
