<svg width="13" height="8" viewBox="0 0 13 8" fill="none" xmlns="http://www.w3.org/2000/svg">
<path opacity="0.5" d="M6.83585 7.48312C6.67147 7.48332 6.50895 7.44864 6.35911 7.38139C6.20928 7.31413 6.07559 7.21586 5.96696 7.09312L1.03656 1.51712C0.880724 1.33234 0.803736 1.09424 0.822053 0.853724C0.840371 0.613207 0.95254 0.389365 1.13458 0.230063C1.31661 0.0707609 1.55407 -0.0113579 1.79617 0.00126637C2.03827 0.0138906 2.26579 0.120256 2.43009 0.297618L6.74137 5.17362C6.75316 5.187 6.76769 5.19773 6.78398 5.20507C6.80028 5.21242 6.81796 5.21622 6.83585 5.21622C6.85374 5.21622 6.87142 5.21242 6.88771 5.20507C6.904 5.19773 6.91853 5.187 6.93032 5.17362L11.2416 0.297618C11.4059 0.120256 11.6334 0.013891 11.8755 0.0012668C12.1176 -0.0113574 12.3551 0.0707614 12.5371 0.230064C12.7192 0.389366 12.8313 0.613207 12.8496 0.853724C12.868 1.09424 12.791 1.33234 12.6351 1.51712L7.70624 7.09112C7.59742 7.21416 7.46353 7.31275 7.31346 7.38034C7.16339 7.44793 7.00058 7.48296 6.83585 7.48312Z" fill="#2B2B2B"/>
</svg>
