<svg width="25" height="20" viewBox="0 0 25 20" fill="none" xmlns="http://www.w3.org/2000/svg">
<path fill-rule="evenodd" clip-rule="evenodd" d="M11.3779 3.16805C11.6914 3.66015 12.0021 4.0719 12.6161 4.17285C13.9254 4.38799 15.2304 4.62987 16.5346 4.87477C16.7785 4.92062 17.0101 5.03155 17.2511 5.2146C16.9516 5.27303 16.6524 5.33376 16.3525 5.38954C13.4376 5.93181 10.7071 6.92282 8.35183 8.77353C6.4193 10.2919 4.95406 12.1617 4.26769 14.563C3.89524 15.8663 3.88094 17.1844 4.22648 18.5C4.32961 18.8928 5.20099 19.2926 5.55086 19.0901C5.65942 19.0274 5.76706 18.8586 5.76921 18.7365C5.77482 18.4211 5.78762 18.0795 5.67894 17.7934C5.36323 16.9624 5.37118 16.137 5.61542 15.3059C6.5673 12.067 8.52977 9.67278 11.5858 8.19886C14.001 7.03401 16.5631 6.45582 19.2266 6.2806C19.2932 6.27624 19.3604 6.27573 19.4272 6.27858C19.4522 6.27971 19.4765 6.29583 19.5785 6.33426C19.3708 6.79394 19.2103 7.2779 18.9502 7.70057C18.198 8.92269 17.4072 10.1211 16.6261 11.3255C16.5702 11.4116 16.4762 11.4766 16.3913 11.54C16.09 11.7656 16.0444 12.0158 16.2542 12.3265C16.4878 12.6722 17.0847 12.8871 17.4749 12.7532C17.5544 12.726 17.6357 12.6587 17.6823 12.5876C18.4922 11.355 19.3364 10.1424 20.0887 8.87522C20.5853 8.03868 21.0109 7.14633 21.3545 6.23602C21.7774 5.11565 21.3894 4.43475 20.244 4.0886C19.8736 3.97671 19.4845 3.92519 19.1026 3.85355C17.773 3.60407 16.4399 3.37289 15.1139 3.10573C14.0429 2.88998 12.9776 2.69138 11.8882 2.96379C11.7712 2.99308 11.6554 3.0278 11.5408 3.06532C11.5049 3.07703 11.4746 3.10601 11.3779 3.16805Z" fill="#2B2B2B"/>
</svg>
