<svg width="25" height="20" viewBox="0 0 25 20" fill="none" xmlns="http://www.w3.org/2000/svg">
<path fill-rule="evenodd" clip-rule="evenodd" d="M11.3782 16.294C11.6917 15.8019 12.0023 15.3901 12.6163 15.2892C13.9256 15.074 15.2307 14.8322 16.5348 14.5873C16.7787 14.5414 17.0104 14.4305 17.2513 14.2474C16.9519 14.189 16.6527 14.1283 16.3527 14.0725C13.4379 13.5302 10.7074 12.5392 8.35207 10.6885C6.41954 9.17009 4.95431 7.30033 4.26794 4.89901C3.89548 3.59577 3.88119 2.27762 4.22672 0.96202C4.32985 0.569259 5.20123 0.169448 5.55111 0.371928C5.65967 0.434657 5.7673 0.603434 5.76946 0.72551C5.77507 1.04092 5.78787 1.38257 5.67919 1.66861C5.36347 2.49962 5.37143 3.32508 5.61567 4.15616C6.56754 7.39499 8.53002 9.78925 11.586 11.2632C14.0012 12.428 16.5634 13.0062 19.2268 13.1814C19.2935 13.1858 19.3607 13.1863 19.4275 13.1835C19.4524 13.1823 19.4767 13.1662 19.5787 13.1278C19.3711 12.6681 19.2105 12.1841 18.9504 11.7615C18.1983 10.5393 17.4074 9.34095 16.6264 8.13657C16.5705 8.05039 16.4765 7.98548 16.3916 7.922C16.0903 7.69648 16.0446 7.44621 16.2545 7.13558C16.4881 6.78988 17.085 6.57493 17.4751 6.7088C17.5546 6.73606 17.6359 6.80333 17.6826 6.8744C18.4925 8.10704 19.3367 9.3196 20.0889 10.5868C20.5855 11.4234 21.0112 12.3157 21.3548 13.226C21.7776 14.3464 21.3896 15.0273 20.2442 15.3734C19.8739 15.4853 19.4847 15.5368 19.1028 15.6085C17.7733 15.858 16.4401 16.0892 15.1141 16.3563C14.0431 16.5721 12.9778 16.7707 11.8885 16.4982C11.7715 16.469 11.6556 16.4342 11.541 16.3967C11.5051 16.385 11.4748 16.356 11.3782 16.294Z" fill="#2B2B2B"/>
</svg>
