<svg width="32" height="32" viewBox="0 0 32 32" fill="none" xmlns="http://www.w3.org/2000/svg">
<path d="M16 31C7.72933 31 1 24.2707 1 16C1 7.72933 7.72933 1 16 1C24.2707 1 31 7.72933 31 16C31 24.2707 24.2707 31 16 31ZM16 3C8.832 3 3 8.832 3 16C3 23.168 8.832 29 16 29C23.168 29 29 23.168 29 16C29 8.832 23.168 3 16 3Z" fill="#959595"/>
<path d="M22.2495 23.2507C21.9828 23.2507 21.7308 23.1467 21.5428 22.9573L15.2935 16.7067C15.2001 16.6133 15.1268 16.504 15.0761 16.38C15.0721 16.3693 15.0681 16.3573 15.0641 16.3467C15.0215 16.232 15.0015 16.1173 15.0015 16V11C15.0015 10.448 15.4495 10 16.0015 10C16.5535 10 17.0015 10.448 17.0015 11V15.5853L22.9575 21.5427C23.1468 21.732 23.2508 21.9827 23.2508 22.2493C23.2508 22.516 23.1468 22.768 22.9575 22.956C22.7681 23.144 22.5161 23.2507 22.2495 23.2507Z" fill="#959595"/>
</svg>
