<svg width="466" height="191" viewBox="0 0 466 191" fill="none" xmlns="http://www.w3.org/2000/svg">
<g clip-path="url(#clip0)">
<path d="M464.8 2.4C464.137 2.4 463.6 1.86274 463.6 1.2C463.6 0.537258 464.137 0 464.8 0C465.463 0 466 0.537258 466 1.2C466 1.86274 465.463 2.4 464.8 2.4Z" fill="#2B2B2B" fill-opacity="0.5"/>
<path d="M463.3 9.80002C462.637 9.80002 462.1 9.26277 462.1 8.60002C462.1 7.93728 462.637 7.40002 463.3 7.40002C463.963 7.40002 464.5 7.93728 464.5 8.60002C464.5 9.26277 463.963 9.80002 463.3 9.80002Z" fill="#2B2B2B" fill-opacity="0.5"/>
<path d="M460.7 16.8C460.037 16.8 459.5 16.2628 459.5 15.6C459.5 14.9373 460.037 14.4 460.7 14.4C461.363 14.4 461.9 14.9373 461.9 15.6C461.9 16.2628 461.363 16.8 460.7 16.8Z" fill="#2B2B2B" fill-opacity="0.5"/>
<path d="M457.6 23.6C456.937 23.6 456.4 23.0628 456.4 22.4C456.4 21.7373 456.937 21.2 457.6 21.2C458.263 21.2 458.8 21.7373 458.8 22.4C458.8 23.0628 458.263 23.6 457.6 23.6Z" fill="#2B2B2B" fill-opacity="0.5"/>
<path d="M453.8 30.1C453.137 30.1 452.6 29.5628 452.6 28.9C452.6 28.2373 453.137 27.7 453.8 27.7C454.463 27.7 455 28.2373 455 28.9C455 29.5628 454.463 30.1 453.8 30.1Z" fill="#2B2B2B" fill-opacity="0.5"/>
<path d="M449.5 36.2C448.837 36.2 448.3 35.6627 448.3 35C448.3 34.3372 448.837 33.8 449.5 33.8C450.163 33.8 450.7 34.3372 450.7 35C450.7 35.6627 450.163 36.2 449.5 36.2Z" fill="#2B2B2B" fill-opacity="0.5"/>
<path d="M444.5 41.8C443.837 41.8 443.3 41.2628 443.3 40.6C443.3 39.9373 443.837 39.4 444.5 39.4C445.163 39.4 445.7 39.9373 445.7 40.6C445.7 41.2628 445.163 41.8 444.5 41.8Z" fill="#2B2B2B" fill-opacity="0.5"/>
<path d="M439.6 47.5C438.937 47.5 438.4 46.9627 438.4 46.3C438.4 45.6372 438.937 45.1 439.6 45.1C440.263 45.1 440.8 45.6372 440.8 46.3C440.8 46.9627 440.263 47.5 439.6 47.5Z" fill="#2B2B2B" fill-opacity="0.5"/>
<path d="M433.6 52C432.937 52 432.4 51.4627 432.4 50.8C432.4 50.1372 432.937 49.6 433.6 49.6C434.263 49.6 434.8 50.1372 434.8 50.8C434.8 51.4627 434.263 52 433.6 52Z" fill="#2B2B2B" fill-opacity="0.5"/>
<path d="M427.7 56.6C427.037 56.6 426.5 56.0628 426.5 55.4C426.5 54.7373 427.037 54.2 427.7 54.2C428.363 54.2 428.9 54.7373 428.9 55.4C428.9 56.0628 428.363 56.6 427.7 56.6Z" fill="#2B2B2B" fill-opacity="0.5"/>
<path d="M421.7 61.2C421.037 61.2 420.5 60.6627 420.5 60C420.5 59.3372 421.037 58.8 421.7 58.8C422.363 58.8 422.9 59.3372 422.9 60C422.9 60.6627 422.363 61.2 421.7 61.2Z" fill="#2B2B2B" fill-opacity="0.5"/>
<path d="M415.1 64.7C414.437 64.7 413.9 64.1627 413.9 63.5C413.9 62.8372 414.437 62.3 415.1 62.3C415.763 62.3 416.3 62.8372 416.3 63.5C416.3 64.1627 415.763 64.7 415.1 64.7Z" fill="#2B2B2B" fill-opacity="0.5"/>
<path d="M408.4 68.1C407.737 68.1 407.2 67.5627 407.2 66.9C407.2 66.2372 407.737 65.7 408.4 65.7C409.063 65.7 409.6 66.2372 409.6 66.9C409.6 67.5627 409.063 68.1 408.4 68.1Z" fill="#2B2B2B" fill-opacity="0.5"/>
<path d="M401.7 71.4C401.037 71.4 400.5 70.8627 400.5 70.2C400.5 69.5373 401.037 69 401.7 69C402.363 69 402.9 69.5373 402.9 70.2C402.9 70.8627 402.363 71.4 401.7 71.4Z" fill="#2B2B2B" fill-opacity="0.5"/>
<path d="M395 74.7C394.337 74.7 393.8 74.1627 393.8 73.5C393.8 72.8372 394.337 72.3 395 72.3C395.663 72.3 396.2 72.8372 396.2 73.5C396.2 74.1627 395.663 74.7 395 74.7Z" fill="#2B2B2B" fill-opacity="0.5"/>
<path d="M387.8 77C387.137 77 386.6 76.4627 386.6 75.8C386.6 75.1372 387.137 74.6 387.8 74.6C388.463 74.6 389 75.1372 389 75.8C389 76.4627 388.463 77 387.8 77Z" fill="#2B2B2B" fill-opacity="0.5"/>
<path d="M380.7 79.2C380.037 79.2 379.5 78.6627 379.5 78C379.5 77.3372 380.037 76.8 380.7 76.8C381.363 76.8 381.9 77.3372 381.9 78C381.9 78.6627 381.363 79.2 380.7 79.2Z" fill="#2B2B2B" fill-opacity="0.5"/>
<path d="M373.5 81.5C372.837 81.5 372.3 80.9627 372.3 80.3C372.3 79.6372 372.837 79.1 373.5 79.1C374.163 79.1 374.7 79.6372 374.7 80.3C374.7 80.9627 374.163 81.5 373.5 81.5Z" fill="#2B2B2B" fill-opacity="0.5"/>
<path d="M366.4 83.7C365.737 83.7 365.2 83.1627 365.2 82.5C365.2 81.8372 365.737 81.3 366.4 81.3C367.063 81.3 367.6 81.8372 367.6 82.5C367.6 83.1627 367.063 83.7 366.4 83.7Z" fill="#2B2B2B" fill-opacity="0.5"/>
<path d="M359.1 85.6C358.437 85.6 357.9 85.0628 357.9 84.4C357.9 83.7373 358.437 83.2 359.1 83.2C359.763 83.2 360.3 83.7373 360.3 84.4C360.3 85.0628 359.763 85.6 359.1 85.6Z" fill="#2B2B2B" fill-opacity="0.5"/>
<path d="M351.7 86.9C351.037 86.9 350.5 86.3627 350.5 85.7C350.5 85.0373 351.037 84.5 351.7 84.5C352.363 84.5 352.9 85.0373 352.9 85.7C352.9 86.3627 352.363 86.9 351.7 86.9Z" fill="#2B2B2B" fill-opacity="0.5"/>
<path d="M344.3 88.1C343.637 88.1 343.1 87.5627 343.1 86.9C343.1 86.2372 343.637 85.7 344.3 85.7C344.963 85.7 345.5 86.2372 345.5 86.9C345.5 87.5627 344.963 88.1 344.3 88.1Z" fill="#2B2B2B" fill-opacity="0.5"/>
<path d="M336.9 89.3C336.237 89.3 335.7 88.7628 335.7 88.1C335.7 87.4373 336.237 86.9 336.9 86.9C337.563 86.9 338.1 87.4373 338.1 88.1C338.1 88.7628 337.563 89.3 336.9 89.3Z" fill="#2B2B2B" fill-opacity="0.5"/>
<path d="M329.5 90.5C328.837 90.5 328.3 89.9627 328.3 89.3C328.3 88.6372 328.837 88.1 329.5 88.1C330.163 88.1 330.7 88.6372 330.7 89.3C330.7 89.9627 330.163 90.5 329.5 90.5Z" fill="#2B2B2B" fill-opacity="0.5"/>
<path d="M322.1 91.8C321.437 91.8 320.9 91.2627 320.9 90.6C320.9 89.9372 321.437 89.4 322.1 89.4C322.763 89.4 323.3 89.9372 323.3 90.6C323.3 91.2627 322.763 91.8 322.1 91.8Z" fill="#2B2B2B" fill-opacity="0.5"/>
<path d="M314.7 92.6C314.037 92.6 313.5 92.0627 313.5 91.4C313.5 90.7372 314.037 90.2 314.7 90.2C315.363 90.2 315.9 90.7372 315.9 91.4C315.9 92.0627 315.363 92.6 314.7 92.6Z" fill="#2B2B2B" fill-opacity="0.5"/>
<path d="M307.2 93C306.537 93 306 92.4627 306 91.8C306 91.1372 306.537 90.6 307.2 90.6C307.863 90.6 308.4 91.1372 308.4 91.8C308.4 92.4627 307.863 93 307.2 93Z" fill="#2B2B2B" fill-opacity="0.5"/>
<path d="M299.7 93.3C299.037 93.3 298.5 92.7628 298.5 92.1C298.5 91.4373 299.037 90.9 299.7 90.9C300.363 90.9 300.9 91.4373 300.9 92.1C300.9 92.7628 300.363 93.3 299.7 93.3Z" fill="#2B2B2B" fill-opacity="0.5"/>
<path d="M292.2 93.7C291.537 93.7 291 93.1628 291 92.5C291 91.8373 291.537 91.3 292.2 91.3C292.863 91.3 293.4 91.8373 293.4 92.5C293.4 93.1628 292.863 93.7 292.2 93.7Z" fill="#2B2B2B" fill-opacity="0.5"/>
<path d="M284.7 94.1C284.037 94.1 283.5 93.5627 283.5 92.9C283.5 92.2372 284.037 91.7 284.7 91.7C285.363 91.7 285.9 92.2372 285.9 92.9C285.9 93.5627 285.363 94.1 284.7 94.1Z" fill="#2B2B2B" fill-opacity="0.5"/>
<path d="M277.3 94.4C276.637 94.4 276.1 93.8627 276.1 93.2C276.1 92.5373 276.637 92 277.3 92C277.963 92 278.5 92.5373 278.5 93.2C278.5 93.8627 277.963 94.4 277.3 94.4Z" fill="#2B2B2B" fill-opacity="0.5"/>
<path d="M269.8 94.8C269.137 94.8 268.6 94.2628 268.6 93.6C268.6 92.9373 269.137 92.4 269.8 92.4C270.463 92.4 271 92.9373 271 93.6C271 94.2628 270.463 94.8 269.8 94.8Z" fill="#2B2B2B" fill-opacity="0.5"/>
<path d="M262.3 95.1C261.637 95.1 261.1 94.5627 261.1 93.9C261.1 93.2372 261.637 92.7 262.3 92.7C262.963 92.7 263.5 93.2372 263.5 93.9C263.5 94.5627 262.963 95.1 262.3 95.1Z" fill="#2B2B2B" fill-opacity="0.5"/>
<path d="M254.8 95.1C254.137 95.1 253.6 94.5627 253.6 93.9C253.6 93.2372 254.137 92.7 254.8 92.7C255.463 92.7 256 93.2372 256 93.9C256 94.5627 255.463 95.1 254.8 95.1Z" fill="#2B2B2B" fill-opacity="0.5"/>
<path d="M247.3 95.1C246.637 95.1 246.1 94.5627 246.1 93.9C246.1 93.2372 246.637 92.7 247.3 92.7C247.963 92.7 248.5 93.2372 248.5 93.9C248.5 94.5627 247.963 95.1 247.3 95.1Z" fill="#2B2B2B" fill-opacity="0.5"/>
<path d="M239.8 95.1C239.137 95.1 238.6 94.5627 238.6 93.9C238.6 93.2372 239.137 92.7 239.8 92.7C240.463 92.7 241 93.2372 241 93.9C241 94.5627 240.463 95.1 239.8 95.1Z" fill="#2B2B2B" fill-opacity="0.5"/>
<path d="M232.3 95.1C231.637 95.1 231.1 94.5627 231.1 93.9C231.1 93.2372 231.637 92.7 232.3 92.7C232.963 92.7 233.5 93.2372 233.5 93.9C233.5 94.5627 232.963 95.1 232.3 95.1Z" fill="#2B2B2B" fill-opacity="0.5"/>
<path d="M224.8 95.1C224.137 95.1 223.6 94.5627 223.6 93.9C223.6 93.2372 224.137 92.7 224.8 92.7C225.463 92.7 226 93.2372 226 93.9C226 94.5627 225.463 95.1 224.8 95.1Z" fill="#2B2B2B" fill-opacity="0.5"/>
<path d="M217.3 95.1C216.637 95.1 216.1 94.5627 216.1 93.9C216.1 93.2372 216.637 92.7 217.3 92.7C217.963 92.7 218.5 93.2372 218.5 93.9C218.5 94.5627 217.963 95.1 217.3 95.1Z" fill="#2B2B2B" fill-opacity="0.5"/>
<path d="M209.8 95.1C209.137 95.1 208.6 94.5627 208.6 93.9C208.6 93.2372 209.137 92.7 209.8 92.7C210.463 92.7 211 93.2372 211 93.9C211 94.5627 210.463 95.1 209.8 95.1Z" fill="#2B2B2B" fill-opacity="0.5"/>
<path d="M202.3 95.1C201.637 95.1 201.1 94.5628 201.1 93.9C201.1 93.2373 201.637 92.7 202.3 92.7C202.963 92.7 203.5 93.2373 203.5 93.9C203.5 94.5628 202.963 95.1 202.3 95.1Z" fill="#2B2B2B" fill-opacity="0.5"/>
<path d="M194.8 95.5C194.137 95.5 193.6 94.9627 193.6 94.3C193.6 93.6372 194.137 93.1 194.8 93.1C195.463 93.1 196 93.6372 196 94.3C196 94.9627 195.463 95.5 194.8 95.5Z" fill="#2B2B2B" fill-opacity="0.5"/>
<path d="M187.3 95.9C186.637 95.9 186.1 95.3627 186.1 94.7C186.1 94.0373 186.637 93.5 187.3 93.5C187.963 93.5 188.5 94.0373 188.5 94.7C188.5 95.3627 187.963 95.9 187.3 95.9Z" fill="#2B2B2B" fill-opacity="0.5"/>
<path d="M179.8 96.2C179.137 96.2 178.6 95.6627 178.6 95C178.6 94.3372 179.137 93.8 179.8 93.8C180.463 93.8 181 94.3372 181 95C181 95.6627 180.463 96.2 179.8 96.2Z" fill="#2B2B2B" fill-opacity="0.5"/>
<path d="M172.3 96.6C171.637 96.6 171.1 96.0627 171.1 95.4C171.1 94.7372 171.637 94.2 172.3 94.2C172.963 94.2 173.5 94.7372 173.5 95.4C173.5 96.0627 172.963 96.6 172.3 96.6Z" fill="#2B2B2B" fill-opacity="0.5"/>
<path d="M164.8 97C164.137 97 163.6 96.4627 163.6 95.8C163.6 95.1372 164.137 94.6 164.8 94.6C165.463 94.6 166 95.1372 166 95.8C166 96.4627 165.463 97 164.8 97Z" fill="#2B2B2B" fill-opacity="0.5"/>
<path d="M157.3 97.3C156.637 97.3 156.1 96.7628 156.1 96.1C156.1 95.4373 156.637 94.9 157.3 94.9C157.963 94.9 158.5 95.4373 158.5 96.1C158.5 96.7628 157.963 97.3 157.3 97.3Z" fill="#2B2B2B" fill-opacity="0.5"/>
<path d="M149.8 97.7C149.137 97.7 148.6 97.1628 148.6 96.5C148.6 95.8373 149.137 95.3 149.8 95.3C150.463 95.3 151 95.8373 151 96.5C151 97.1628 150.463 97.7 149.8 97.7Z" fill="#2B2B2B" fill-opacity="0.5"/>
<path d="M142.4 98.8C141.737 98.8 141.2 98.2627 141.2 97.6C141.2 96.9372 141.737 96.4 142.4 96.4C143.063 96.4 143.6 96.9372 143.6 97.6C143.6 98.2627 143.063 98.8 142.4 98.8Z" fill="#2B2B2B" fill-opacity="0.5"/>
<path d="M135 100C134.337 100 133.8 99.4627 133.8 98.8C133.8 98.1372 134.337 97.6 135 97.6C135.663 97.6 136.2 98.1372 136.2 98.8C136.2 99.4627 135.663 100 135 100Z" fill="#2B2B2B" fill-opacity="0.5"/>
<path d="M127.6 101.3C126.937 101.3 126.4 100.763 126.4 100.1C126.4 99.4372 126.937 98.9 127.6 98.9C128.263 98.9 128.8 99.4372 128.8 100.1C128.8 100.763 128.263 101.3 127.6 101.3Z" fill="#2B2B2B" fill-opacity="0.5"/>
<path d="M120.2 102.5C119.537 102.5 119 101.963 119 101.3C119 100.637 119.537 100.1 120.2 100.1C120.863 100.1 121.4 100.637 121.4 101.3C121.4 101.963 120.863 102.5 120.2 102.5Z" fill="#2B2B2B" fill-opacity="0.5"/>
<path d="M112.8 103.7C112.137 103.7 111.6 103.163 111.6 102.5C111.6 101.837 112.137 101.3 112.8 101.3C113.463 101.3 114 101.837 114 102.5C114 103.163 113.463 103.7 112.8 103.7Z" fill="#2B2B2B" fill-opacity="0.5"/>
<path d="M105.4 104.9C104.737 104.9 104.2 104.363 104.2 103.7C104.2 103.037 104.737 102.5 105.4 102.5C106.063 102.5 106.6 103.037 106.6 103.7C106.6 104.363 106.063 104.9 105.4 104.9Z" fill="#2B2B2B" fill-opacity="0.5"/>
<path d="M98.3 107.2C97.6372 107.2 97.1 106.663 97.1 106C97.1 105.337 97.6372 104.8 98.3 104.8C98.9627 104.8 99.5 105.337 99.5 106C99.5 106.663 98.9627 107.2 98.3 107.2Z" fill="#2B2B2B" fill-opacity="0.5"/>
<path d="M91.1001 109.4C90.4373 109.4 89.9001 108.863 89.9001 108.2C89.9001 107.537 90.4373 107 91.1001 107C91.7628 107 92.3 107.537 92.3 108.2C92.3 108.863 91.7628 109.4 91.1001 109.4Z" fill="#2B2B2B" fill-opacity="0.5"/>
<path d="M84 111.6C83.3373 111.6 82.8 111.063 82.8 110.4C82.8 109.737 83.3373 109.2 84 109.2C84.6627 109.2 85.2 109.737 85.2 110.4C85.2 111.063 84.6627 111.6 84 111.6Z" fill="#2B2B2B" fill-opacity="0.5"/>
<path d="M76.8 113.9C76.1372 113.9 75.6 113.363 75.6 112.7C75.6 112.037 76.1372 111.5 76.8 111.5C77.4627 111.5 78 112.037 78 112.7C78 113.363 77.4627 113.9 76.8 113.9Z" fill="#2B2B2B" fill-opacity="0.5"/>
<path d="M69.7 116.4C69.0373 116.4 68.5 115.863 68.5 115.2C68.5 114.537 69.0373 114 69.7 114C70.3628 114 70.9 114.537 70.9 115.2C70.9 115.863 70.3628 116.4 69.7 116.4Z" fill="#2B2B2B" fill-opacity="0.5"/>
<path d="M63.1 119.8C62.4373 119.8 61.9 119.263 61.9 118.6C61.9 117.937 62.4373 117.4 63.1 117.4C63.7627 117.4 64.3 117.937 64.3 118.6C64.3 119.263 63.7627 119.8 63.1 119.8Z" fill="#2B2B2B" fill-opacity="0.5"/>
<path d="M56.4 123.2C55.7372 123.2 55.2 122.663 55.2 122C55.2 121.337 55.7372 120.8 56.4 120.8C57.0627 120.8 57.6 121.337 57.6 122C57.6 122.663 57.0627 123.2 56.4 123.2Z" fill="#2B2B2B" fill-opacity="0.5"/>
<path d="M49.7 126.6C49.0373 126.6 48.5 126.063 48.5 125.4C48.5 124.737 49.0373 124.2 49.7 124.2C50.3628 124.2 50.9 124.737 50.9 125.4C50.9 126.063 50.3628 126.6 49.7 126.6Z" fill="#2B2B2B" fill-opacity="0.5"/>
<path d="M43.3 130.4C42.6372 130.4 42.1 129.863 42.1 129.2C42.1 128.537 42.6372 128 43.3 128C43.9627 128 44.5 128.537 44.5 129.2C44.5 129.863 43.9627 130.4 43.3 130.4Z" fill="#2B2B2B" fill-opacity="0.5"/>
<path d="M37.3 135C36.6372 135 36.1 134.463 36.1 133.8C36.1 133.137 36.6372 132.6 37.3 132.6C37.9627 132.6 38.5 133.137 38.5 133.8C38.5 134.463 37.9627 135 37.3 135Z" fill="#2B2B2B" fill-opacity="0.5"/>
<path d="M31.4 139.6C30.7372 139.6 30.2 139.063 30.2 138.4C30.2 137.737 30.7372 137.2 31.4 137.2C32.0627 137.2 32.6 137.737 32.6 138.4C32.6 139.063 32.0627 139.6 31.4 139.6Z" fill="#2B2B2B" fill-opacity="0.5"/>
<path d="M25.8 144.5C25.1372 144.5 24.6 143.963 24.6 143.3C24.6 142.637 25.1372 142.1 25.8 142.1C26.4627 142.1 27 142.637 27 143.3C27 143.963 26.4627 144.5 25.8 144.5Z" fill="#2B2B2B" fill-opacity="0.5"/>
<path d="M20.8 150.1C20.1372 150.1 19.6 149.563 19.6 148.9C19.6 148.237 20.1372 147.7 20.8 147.7C21.4627 147.7 22 148.237 22 148.9C22 149.563 21.4627 150.1 20.8 150.1Z" fill="#2B2B2B" fill-opacity="0.5"/>
<path d="M15.9 155.8C15.2372 155.8 14.7 155.263 14.7 154.6C14.7 153.937 15.2372 153.4 15.9 153.4C16.5627 153.4 17.1 153.937 17.1 154.6C17.1 155.263 16.5627 155.8 15.9 155.8Z" fill="#2B2B2B" fill-opacity="0.5"/>
<path d="M11.9 162.1C11.2372 162.1 10.7 161.563 10.7 160.9C10.7 160.237 11.2372 159.7 11.9 159.7C12.5627 159.7 13.1 160.237 13.1 160.9C13.1 161.563 12.5627 162.1 11.9 162.1Z" fill="#2B2B2B" fill-opacity="0.5"/>
<path d="M8.10007 168.6C7.43733 168.6 6.90005 168.063 6.90005 167.4C6.90005 166.737 7.43733 166.2 8.10007 166.2C8.76281 166.2 9.30005 166.737 9.30005 167.4C9.30005 168.063 8.76281 168.6 8.10007 168.6Z" fill="#2B2B2B" fill-opacity="0.5"/>
<path d="M5.39996 175.6C4.73722 175.6 4.19998 175.063 4.19998 174.4C4.19998 173.737 4.73722 173.2 5.39996 173.2C6.06271 173.2 6.59998 173.737 6.59998 174.4C6.59998 175.063 6.06271 175.6 5.39996 175.6Z" fill="#2B2B2B" fill-opacity="0.5"/>
<path d="M3.10007 182.7C2.43733 182.7 1.90005 182.163 1.90005 181.5C1.90005 180.837 2.43733 180.3 3.10007 180.3C3.76281 180.3 4.30005 180.837 4.30005 181.5C4.30005 182.163 3.76281 182.7 3.10007 182.7Z" fill="#2B2B2B" fill-opacity="0.5"/>
<path d="M2 190.1C1.33726 190.1 0.799988 189.563 0.799988 188.9C0.799988 188.237 1.33726 187.7 2 187.7C2.66274 187.7 3.20001 188.237 3.20001 188.9C3.20001 189.563 2.66274 190.1 2 190.1Z" fill="#2B2B2B" fill-opacity="0.5"/>
</g>
<defs>
<clipPath id="clip0">
<rect width="465.3" height="190.1" transform="matrix(-1 0 0 1 466 0)" fill="white"/>
</clipPath>
</defs>
</svg>
