<svg width="48" height="48" viewBox="0 0 48 48" fill="none" xmlns="http://www.w3.org/2000/svg">
<path d="M24 48C10.766 48 0 37.906 0 25.5V22.5C0 16.514 10.318 12 24 12C24.828 12 25.5 12.672 25.5 13.5C25.5 14.328 24.828 15 24 15C10.478 15 3 19.434 3 22.5C3 24.056 4.838 25.764 7.858 27.13C7.622 26.602 7.5 26.056 7.5 25.5C7.5 21.968 12.026 19.202 19.312 18.286C19.376 18.278 19.438 18.274 19.498 18.274C20.254 18.274 20.894 18.838 20.988 19.586C21.092 20.406 20.508 21.158 19.688 21.262C14.012 21.976 10.5 24.018 10.5 25.5C10.5 27.716 16.634 29.858 23.37 29.994C23.37 29.994 23.852 30 24 30C24.148 30 24.636 29.994 24.636 29.994C31.366 29.86 37.5 27.718 37.5 25.5C37.5 24.672 38.172 24 39 24C39.828 24 40.5 24.672 40.5 25.5C40.5 26.056 40.378 26.602 40.142 27.13C43.162 25.764 45 24.056 45 22.5C45 20.902 43.096 19.13 39.908 17.76C39.54 17.602 39.256 17.31 39.106 16.938C38.958 16.566 38.962 16.158 39.122 15.79C39.358 15.238 39.9 14.882 40.5 14.882C40.706 14.882 40.904 14.924 41.092 15.004C45.546 16.918 48 19.58 48 22.5V25.5C48 37.906 37.234 48 24 48ZM3.16 27.85C4.428 37.462 13.386 45 24 45C34.614 45 43.572 37.462 44.84 27.85C40.688 31.02 32.834 33 24 33C15.166 33 7.312 31.02 3.16 27.85Z" fill="#959595"/>
<path d="M16.5 27C15.672 27 15 26.328 15 25.5C15 24.672 15.672 24 16.5 24H19.5C20.328 24 21 24.672 21 25.5C21 26.328 20.328 27 19.5 27H16.5Z" fill="#959595"/>
<path d="M23.984 25.502C23.198 25.502 22.542 24.846 22.52 24.04C22.466 22.07 23.106 20.13 24.32 18.576C25.46 17.056 27.012 15.942 28.682 15.456C29.284 15.28 29.886 15.19 30.472 15.19C31.106 15.19 31.71 15.292 32.278 15.496L43.816 0.58C44.1 0.212 44.532 0 45 0C45.33 0 45.656 0.112 45.916 0.314C46.57 0.82 46.69 1.764 46.186 2.418L34.616 17.376C36.126 19.626 36.104 22.628 34.506 24.87C34.224 25.264 33.768 25.5 33.284 25.5C32.97 25.5 32.668 25.404 32.414 25.222C32.088 24.99 31.872 24.644 31.806 24.25C31.74 23.854 31.83 23.458 32.064 23.132C33.074 21.714 32.93 19.796 31.726 18.548C31.378 18.312 30.958 18.192 30.478 18.192C30.174 18.192 29.854 18.242 29.522 18.338C28.472 18.644 27.47 19.378 26.702 20.402C25.902 21.426 25.484 22.686 25.518 23.962C25.53 24.362 25.384 24.744 25.108 25.034C24.832 25.324 24.46 25.49 24.06 25.502C24.062 25.5 24.022 25.502 23.984 25.502Z" fill="#959595"/>
</svg>
