<svg width="14" height="13" viewBox="0 0 14 13" fill="none" xmlns="http://www.w3.org/2000/svg">
<path d="M6.65625 10.5L2.53125 13L3.625 8.3125L0 5.15625L4.78125 4.75L6.65625 0.34375L8.53125 4.75L13.3438 5.15625L9.6875 8.3125L10.7812 13L6.65625 10.5Z" fill="#CCCCCC"/>
</svg>
