<svg width="64" height="64" viewBox="0 0 64 64" fill="none" xmlns="http://www.w3.org/2000/svg">
<circle cx="32" cy="32" r="31" fill="white" stroke="#FA585D" stroke-width="2"/>
<g clip-path="url(#clip0)">
<path d="M23 31.0146C22.448 31.0146 22 30.5666 22 30.0146C22 29.4626 22.448 29.0146 23 29.0146H30C30.552 29.0146 31 29.4626 31 30.0146C31 30.5666 30.552 31.0146 30 31.0146H23Z" fill="#FA585D"/>
<path d="M23 36.0146C22.448 36.0146 22 35.5666 22 35.0146C22 34.4626 22.448 34.0146 23 34.0146H27C27.552 34.0146 28 34.4626 28 35.0146C28 35.5666 27.552 36.0146 27 36.0146H23Z" fill="#FA585D"/>
<path d="M23 41.0146C22.448 41.0146 22 40.5666 22 40.0146C22 39.4626 22.448 39.0146 23 39.0146H27C27.552 39.0146 28 39.4626 28 40.0146C28 40.5666 27.552 41.0146 27 41.0146H23Z" fill="#FA585D"/>
<path d="M19 48.0146C17.3453 48.0146 16 46.6693 16 45.0146V24.0146C16 22.36 17.3453 21.0146 19 21.0146H23.084C23.5667 18.176 26.0813 16.0146 29 16.0146C31.92 16.0146 34.4347 18.176 34.916 21.0146H39C40.6547 21.0146 42 22.36 42 24.0146V27.0146C42 27.5666 41.552 28.0146 41 28.0146C40.448 28.0146 40 27.5666 40 27.0146V24.0146C40 23.4626 39.552 23.0146 39 23.0146H34C33.448 23.0146 33 22.5666 33 22.0146C33 19.8093 31.2053 18.0146 29 18.0146C26.7947 18.0146 25 19.8093 25 22.0146C25 22.5666 24.552 23.0146 24 23.0146H19C18.448 23.0146 18 23.4626 18 24.0146V45.0146C18 45.5666 18.448 46.0146 19 46.0146H29C29.552 46.0146 30 46.4626 30 47.0146C30 47.5666 29.552 48.0146 29 48.0146H19Z" fill="#FA585D"/>
<path d="M29 23.0146C29.8284 23.0146 30.5 22.3431 30.5 21.5146C30.5 20.6862 29.8284 20.0146 29 20.0146C28.1716 20.0146 27.5 20.6862 27.5 21.5146C27.5 22.3431 28.1716 23.0146 29 23.0146Z" fill="#FA585D"/>
<path d="M39 48.0147C34.0373 48.0147 30 43.9773 30 39.0146C30 34.052 34.0373 30.0146 39 30.0146C43.9627 30.0146 48 34.052 48 39.0146C48 43.9773 43.9627 48.0147 39 48.0147ZM39 32.0146C35.14 32.0146 32 35.1546 32 39.0146C32 42.8747 35.14 46.0147 39 46.0147C42.86 46.0147 46 42.8747 46 39.0146C46 35.1546 42.86 32.0146 39 32.0146Z" fill="#FA585D"/>
<path d="M37.8881 43.2533C37.4534 43.2533 37.0374 43.1146 36.6881 42.8506C36.6121 42.7933 36.5414 42.732 36.4761 42.6666L34.4761 40.6666C34.0867 40.2773 34.0867 39.6426 34.4761 39.252C34.6654 39.0626 34.9161 38.9586 35.1827 38.9586C35.4494 38.9586 35.7014 39.0626 35.8894 39.252L37.8894 41.252L41.7641 36.0866C41.9521 35.836 42.2507 35.6866 42.5641 35.6866C42.7814 35.6866 42.9881 35.756 43.1627 35.8853C43.6054 36.2173 43.6947 36.8453 43.3627 37.2866L39.4894 42.452C39.1667 42.88 38.6987 43.1573 38.1694 43.232C38.0774 43.2466 37.9827 43.2533 37.8881 43.2533Z" fill="#FA585D"/>
</g>
<defs>
<clipPath id="clip0">
<rect x="16" y="16" width="32" height="32" fill="white"/>
</clipPath>
</defs>
</svg>
